-------------------------------------------------------------------------------
Test set: com.epam.library.TCPConnectionTest
-------------------------------------------------------------------------------
Tests run: 1, Failures: 0, Errors: 0, Skipped: 0, Time elapsed: 0.035 s - in com.epam.library.TCPConnectionTest
