<?xml version="1.0" encoding="UTF-8"?>
<testsuite xmlns:xsi="http://www.w3.org/2001/XMLSchema-instance" xsi:noNamespaceSchemaLocation="https://maven.apache.org/surefire/maven-surefire-plugin/xsd/surefire-test-report.xsd" name="com.epam.library.ServerTest" time="0.031" tests="1" errors="0" skipped="0" failures="0">
  <properties>
    <property name="sun.desktop" value="windows"/>
    <property name="awt.toolkit" value="sun.awt.windows.WToolkit"/>
    <property name="java.specification.version" value="12"/>
    <property name="sun.cpu.isalist" value="amd64"/>
    <property name="sun.jnu.encoding" value="Cp1251"/>
    <property name="java.class.path" value="C:\Learning\Java\ChatPart2\library\server\target\test-classes;C:\Learning\Java\ChatPart2\library\server\target\classes;C:\Users\Nikolai_Lazarev\.m2\repository\com\epam\library\can_execute_query\1.0-SNAPSHOT\can_execute_query-1.0-SNAPSHOT.jar;C:\Users\Nikolai_Lazarev\.m2\repository\com\epam\library\dao\1.0-SNAPSHOT\dao-1.0-SNAPSHOT.jar;C:\Users\Nikolai_Lazarev\.m2\repository\com\epam\library\entity\1.0-SNAPSHOT\entity-1.0-SNAPSHOT.jar;C:\Users\Nikolai_Lazarev\.m2\repository\com\epam\library\connection_pool\1.0-SNAPSHOT\connection_pool-1.0-SNAPSHOT.jar;C:\Users\Nikolai_Lazarev\.m2\repository\com\epam\library\manager\1.0-SNAPSHOT\manager-1.0-SNAPSHOT.jar;C:\Users\Nikolai_Lazarev\.m2\repository\com\epam\library\network\1.0-SNAPSHOT\network-1.0-SNAPSHOT.jar;C:\Users\Nikolai_Lazarev\.m2\repository\org\apache\commons\commons-lang3\3.5\commons-lang3-3.5.jar;C:\Users\Nikolai_Lazarev\.m2\repository\junit\junit\4.11\junit-4.11.jar;C:\Users\Nikolai_Lazarev\.m2\repository\org\hamcrest\hamcrest-core\1.3\hamcrest-core-1.3.jar;C:\Users\Nikolai_Lazarev\.m2\repository\mysql\mysql-connector-java\8.0.17\mysql-connector-java-8.0.17.jar;C:\Users\Nikolai_Lazarev\.m2\repository\com\google\protobuf\protobuf-java\3.6.1\protobuf-java-3.6.1.jar;C:\Users\Nikolai_Lazarev\.m2\repository\log4j\log4j\1.2.17\log4j-1.2.17.jar;"/>
    <property name="java.vm.vendor" value="Oracle Corporation"/>
    <property name="sun.arch.data.model" value="64"/>
    <property name="user.variant" value=""/>
    <property name="java.vendor.url" value="https://java.oracle.com/"/>
    <property name="user.timezone" value="Europe/Moscow"/>
    <property name="os.name" value="Windows 10"/>
    <property name="java.vm.specification.version" value="12"/>
    <property name="sun.java.launcher" value="SUN_STANDARD"/>
    <property name="user.country" value="US"/>
    <property name="sun.boot.library.path" value="C:\Program Files\Java\jdk-12.0.2\bin"/>
    <property name="sun.java.command" value="C:\Users\NIKOLA~1\AppData\Local\Temp\surefire1741743651086828722\surefirebooter10399665079674867614.jar C:\Users\Nikolai_Lazarev\AppData\Local\Temp\surefire1741743651086828722 2019-08-26T17-24-58_950-jvmRun1 surefire10125117384974159098tmp surefire_011121986439787161993tmp"/>
    <property name="jdk.debug" value="release"/>
    <property name="surefire.test.class.path" value="C:\Learning\Java\ChatPart2\library\server\target\test-classes;C:\Learning\Java\ChatPart2\library\server\target\classes;C:\Users\Nikolai_Lazarev\.m2\repository\com\epam\library\can_execute_query\1.0-SNAPSHOT\can_execute_query-1.0-SNAPSHOT.jar;C:\Users\Nikolai_Lazarev\.m2\repository\com\epam\library\dao\1.0-SNAPSHOT\dao-1.0-SNAPSHOT.jar;C:\Users\Nikolai_Lazarev\.m2\repository\com\epam\library\entity\1.0-SNAPSHOT\entity-1.0-SNAPSHOT.jar;C:\Users\Nikolai_Lazarev\.m2\repository\com\epam\library\connection_pool\1.0-SNAPSHOT\connection_pool-1.0-SNAPSHOT.jar;C:\Users\Nikolai_Lazarev\.m2\repository\com\epam\library\manager\1.0-SNAPSHOT\manager-1.0-SNAPSHOT.jar;C:\Users\Nikolai_Lazarev\.m2\repository\com\epam\library\network\1.0-SNAPSHOT\network-1.0-SNAPSHOT.jar;C:\Users\Nikolai_Lazarev\.m2\repository\org\apache\commons\commons-lang3\3.5\commons-lang3-3.5.jar;C:\Users\Nikolai_Lazarev\.m2\repository\junit\junit\4.11\junit-4.11.jar;C:\Users\Nikolai_Lazarev\.m2\repository\org\hamcrest\hamcrest-core\1.3\hamcrest-core-1.3.jar;C:\Users\Nikolai_Lazarev\.m2\repository\mysql\mysql-connector-java\8.0.17\mysql-connector-java-8.0.17.jar;C:\Users\Nikolai_Lazarev\.m2\repository\com\google\protobuf\protobuf-java\3.6.1\protobuf-java-3.6.1.jar;C:\Users\Nikolai_Lazarev\.m2\repository\log4j\log4j\1.2.17\log4j-1.2.17.jar;"/>
    <property name="sun.cpu.endian" value="little"/>
    <property name="user.home" value="C:\Users\Nikolai_Lazarev"/>
    <property name="user.language" value="en"/>
    <property name="java.specification.vendor" value="Oracle Corporation"/>
    <property name="java.version.date" value="2019-07-16"/>
    <property name="java.home" value="C:\Program Files\Java\jdk-12.0.2"/>
    <property name="file.separator" value="\"/>
    <property name="basedir" value="C:\Learning\Java\ChatPart2\library\server"/>
    <property name="java.vm.compressedOopsMode" value="Zero based"/>
    <property name="line.separator" value="&#10;"/>
    <property name="java.vm.specification.vendor" value="Oracle Corporation"/>
    <property name="java.specification.name" value="Java Platform API Specification"/>
    <property name="java.awt.graphicsenv" value="sun.awt.Win32GraphicsEnvironment"/>
    <property name="surefire.real.class.path" value="C:\Users\NIKOLA~1\AppData\Local\Temp\surefire1741743651086828722\surefirebooter10399665079674867614.jar"/>
    <property name="user.script" value=""/>
    <property name="sun.management.compiler" value="HotSpot 64-Bit Tiered Compilers"/>
    <property name="java.runtime.version" value="12.0.2+10"/>
    <property name="user.name" value="Nikolai_Lazarev"/>
    <property name="path.separator" value=";"/>
    <property name="os.version" value="10.0"/>
    <property name="java.runtime.name" value="Java(TM) SE Runtime Environment"/>
    <property name="file.encoding" value="Cp1252"/>
    <property name="java.vm.name" value="Java HotSpot(TM) 64-Bit Server VM"/>
    <property name="localRepository" value="C:\Users\Nikolai_Lazarev\.m2\repository"/>
    <property name="java.vendor.url.bug" value="https://bugreport.java.com/bugreport/"/>
    <property name="java.io.tmpdir" value="C:\Users\NIKOLA~1\AppData\Local\Temp\"/>
    <property name="java.version" value="12.0.2"/>
    <property name="user.dir" value="C:\Learning\Java\ChatPart2\library\server"/>
    <property name="os.arch" value="amd64"/>
    <property name="java.vm.specification.name" value="Java Virtual Machine Specification"/>
    <property name="idea.version2019.1.3" value="true"/>
    <property name="sun.os.patch.level" value=""/>
    <property name="java.library.path" value="C:\Program Files\Java\jdk-12.0.2\bin;C:\WINDOWS\Sun\Java\bin;C:\WINDOWS\system32;C:\WINDOWS;C:\app\Nikolai_Lazarev\product\18.0.0\dbhomeXE\bin;C:\WINDOWS\system32;C:\WINDOWS;C:\WINDOWS\System32\Wbem;C:\WINDOWS\System32\WindowsPowerShell\v1.0\;C:\WINDOWS\System32\OpenSSH\;C:\Program Files\TortoiseSVN\bin;C:\apache-maven-3.6.1\bin;C:\Program Files\Java\jdk-12.0.2\bin;C:\Program Files\Git\cmd;C:\Program Files\MySQL\MySQL Shell 8.0\bin\;."/>
    <property name="java.vm.info" value="mixed mode, sharing"/>
    <property name="java.vendor" value="Oracle Corporation"/>
    <property name="java.vm.version" value="12.0.2+10"/>
    <property name="sun.io.unicode.encoding" value="UnicodeLittle"/>
    <property name="java.class.version" value="56.0"/>
  </properties>
  <testcase name="shouldAnswerWithTrue" classname="com.epam.library.ServerTest" time="0.001"/>
</testsuite>