-------------------------------------------------------------------------------
Test set: com.epam.library.ExecuteQueryErrorTest
-------------------------------------------------------------------------------
Tests run: 1, Failures: 0, Errors: 0, Skipped: 0, Time elapsed: 0.029 s - in com.epam.library.ExecuteQueryErrorTest
