C:\Learning\Java\ChatPart2\library\entity\src\main\java\com\epam\library\entity\Users.java
C:\Learning\Java\ChatPart2\library\entity\src\main\java\com\epam\library\entity\Entity.java
C:\Learning\Java\ChatPart2\library\entity\src\main\java\com\epam\library\entity\Books.java
C:\Learning\Java\ChatPart2\library\entity\src\main\java\com\epam\library\entity\Bookmark.java
C:\Learning\Java\ChatPart2\library\entity\src\main\java\com\epam\library\entity\Author.java
